[
  {
    "name": "employee_id",
    "type": "STRING",
    "mode": "NULLABLE",
    "description": null,
    "fields": null,
    "options": {
      "quote": "",
      "skip_leading_rows": 0,
      "write_disposition": "WRITE_EMPTY",
      "field_delimiter": ",",
      "max_bad_records": 0,
      "allow_quoted_newlines": false,
      "encoding": "UTF-8",
      "ignore_unknown_values": false,
      "allow_jagged_rows": false,
      "quote_empty_strings": false
    }
  },

  {
    "name": "employee_name",
    "type": "STRING",
    "mode": "NULLABLE",
    "description": null,
    "fields": null,
    "options": {
      "quote": "",
      "skip_leading_rows": 0,
      "write_disposition": "WRITE_EMPTY",
      "field_delimiter": ",",
      "max_bad_records": 0,
      "allow_quoted_newlines": false,
      "encoding": "UTF-8",
      "ignore_unknown_values": false,
      "allow_jagged_rows": false,
      "quote_empty_strings": false
    }
  },
  {
    "name": "employee_site",
    "type": "STRING",
    "mode": "NULLABLE",
    "description": null,
    "fields": null,
    "options": {
      "quote": "",
      "skip_leading_rows": 0,
      "write_disposition": "WRITE_EMPTY",
      "field_delimiter": ",",
      "max_bad_records": 0,
      "allow_quoted_newlines": false,
      "encoding": "UTF-8",
      "ignore_unknown_values": false,
      "allow_jagged_rows": false,
      "quote_empty_strings": false
    }
  },

  {
    "name": "employee_team",
    "type": "STRING",
    "mode": "NULLABLE",
    "description": null,
    "fields": null,
    "options": {
      "quote": "",
      "skip_leading_rows": 0,
      "write_disposition": "WRITE_EMPTY",
      "field_delimiter": ",",
      "max_bad_records": 0,
      "allow_quoted_newlines": false,
      "encoding": "UTF-8",
      "ignore_unknown_values": false,
      "allow_jagged_rows": false,
      "quote_empty_strings": false
    }
  },

  {
    "name": "employee_tier",
    "type": "STRING",
    "mode": "NULLABLE",
    "description": null,
    "fields": null,
    "options": {
      "quote": "",
      "skip_leading_rows": 0,
      "write_disposition": "WRITE_EMPTY",
      "field_delimiter": ",",
      "max_bad_records": 0,
      "allow_quoted_newlines": false,
      "encoding": "UTF-8",
      "ignore_unknown_values": false,
      "allow_jagged_rows": false,
      "quote_empty_strings": false
    }
  },

  {
    "name": "verint_organization",
    "type": "STRING",
    "mode": "NULLABLE",
    "description": null,
    "fields": null,
    "options": {
      "quote": "",
      "skip_leading_rows": 0,
      "write_disposition": "WRITE_EMPTY",
      "field_delimiter": ",",
      "max_bad_records": 0,
      "allow_quoted_newlines": false,
      "encoding": "UTF-8",
      "ignore_unknown_values": false,
      "allow_jagged_rows": false,
      "quote_empty_strings": false
    }
  },

  {
    "name": "designation",
    "type": "STRING",
    "mode": "NULLABLE",
    "description": null,
    "fields": null,
    "options": {
      "quote": "",
      "skip_leading_rows": 0,
      "write_disposition": "WRITE_EMPTY",
      "field_delimiter": ",",
      "max_bad_records": 0,
      "allow_quoted_newlines": false,
      "encoding": "UTF-8",
      "ignore_unknown_values": false,
      "allow_jagged_rows": false,
      "quote_empty_strings": false
    }
  },

  {
    "name": "start_date",
    "type": "STRING",
    "mode": "NULLABLE",
    "description": null,
    "fields": null,
    "options": {
      "quote": "",
      "skip_leading_rows": 0,
      "write_disposition": "WRITE_EMPTY",
      "field_delimiter": ",",
      "max_bad_records": 0,
      "allow_quoted_newlines": false,
      "encoding": "UTF-8",
      "ignore_unknown_values": false,
      "allow_jagged_rows": false,
      "quote_empty_strings": false
    }
  },

  {
    "name": "tool",
    "type": "STRING",
    "mode": "NULLABLE",
    "description": null,
    "fields": null,
    "options": {
      "quote": "",
      "skip_leading_rows": 0,
      "write_disposition": "WRITE_EMPTY",
      "field_delimiter": ",",
      "max_bad_records": 0,
      "allow_quoted_newlines": false,
      "encoding": "UTF-8",
      "ignore_unknown_values": false,
      "allow_jagged_rows": false,
      "quote_empty_strings": false
    }
  },

  {
    "name": "tool_id",
    "type": "STRING",
    "mode": "NULLABLE",
    "description": null,
    "fields": null,
    "options": {
      "quote": "",
      "skip_leading_rows": 0,
      "write_disposition": "WRITE_EMPTY",
      "field_delimiter": ",",
      "max_bad_records": 0,
      "allow_quoted_newlines": false,
      "encoding": "UTF-8",
      "ignore_unknown_values": false,
      "allow_jagged_rows": false,
      "quote_empty_strings": false
    }
  },

  {
    "name": "contact_type",
    "type": "STRING",
    "mode": "NULLABLE",
    "description": null,
    "fields": null,
    "options": {
      "quote": "",
      "skip_leading_rows": 0,
      "write_disposition": "WRITE_EMPTY",
      "field_delimiter": ",",
      "max_bad_records": 0,
      "allow_quoted_newlines": false,
      "encoding": "UTF-8",
      "ignore_unknown_values": false,
      "allow_jagged_rows": false,
      "quote_empty_strings": false
    }
  },

  {
    "name": "queue_language",
    "type": "STRING",
    "mode": "NULLABLE",
    "description": null,
    "fields": null,
    "options": {
      "quote": "",
      "skip_leading_rows": 0,
      "write_disposition": "WRITE_EMPTY",
      "field_delimiter": ",",
      "max_bad_records": 0,
      "allow_quoted_newlines": false,
      "encoding": "UTF-8",
      "ignore_unknown_values": false,
      "allow_jagged_rows": false,
      "quote_empty_strings": false
    }
  },

  {
    "name": "queue_skill",
    "type": "STRING",
    "mode": "NULLABLE",
    "description": null,
    "fields": null,
    "options": {
      "quote": "",
      "skip_leading_rows": 0,
      "write_disposition": "WRITE_EMPTY",
      "field_delimiter": ",",
      "max_bad_records": 0,
      "allow_quoted_newlines": false,
      "encoding": "UTF-8",
      "ignore_unknown_values": false,
      "allow_jagged_rows": false,
      "quote_empty_strings": false
    }
  },

  {
    "name": "segments",
    "type": "STRING",
    "mode": "NULLABLE",
    "description": null,
    "fields": null,
    "options": {
      "quote": "",
      "skip_leading_rows": 0,
      "write_disposition": "WRITE_EMPTY",
      "field_delimiter": ",",
      "max_bad_records": 0,
      "allow_quoted_newlines": false,
      "encoding": "UTF-8",
      "ignore_unknown_values": false,
      "allow_jagged_rows": false,
      "quote_empty_strings": false
    }
  },

  {
    "name": "queue",
    "type": "STRING",
    "mode": "NULLABLE",
    "description": null,
    "fields": null,
    "options": {
      "quote": "",
      "skip_leading_rows": 0,
      "write_disposition": "WRITE_EMPTY",
      "field_delimiter": ",",
      "max_bad_records": 0,
      "allow_quoted_newlines": false,
      "encoding": "UTF-8",
      "ignore_unknown_values": false,
      "allow_jagged_rows": false,
      "quote_empty_strings": false
    }
  },

  {
    "name": "year",
    "type": "STRING",
    "mode": "NULLABLE",
    "description": null,
    "fields": null,
    "options": {
      "quote": "",
      "skip_leading_rows": 0,
      "write_disposition": "WRITE_EMPTY",
      "field_delimiter": ",",
      "max_bad_records": 0,
      "allow_quoted_newlines": false,
      "encoding": "UTF-8",
      "ignore_unknown_values": false,
      "allow_jagged_rows": false,
      "quote_empty_strings": false
    }
  },

  {
    "name": "month",
    "type": "STRING",
    "mode": "NULLABLE",
    "description": null,
    "fields": null,
    "options": {
      "quote": "",
      "skip_leading_rows": 0,
      "write_disposition": "WRITE_EMPTY",
      "field_delimiter": ",",
      "max_bad_records": 0,
      "allow_quoted_newlines": false,
      "encoding": "UTF-8",
      "ignore_unknown_values": false,
      "allow_jagged_rows": false,
      "quote_empty_strings": false
    }
  },

  {
    "name": "week",
    "type": "STRING",
    "mode": "NULLABLE",
    "description": null,
    "fields": null,
    "options": {
      "quote": "",
      "skip_leading_rows": 0,
      "write_disposition": "WRITE_EMPTY",
      "field_delimiter": ",",
      "max_bad_records": 0,
      "allow_quoted_newlines": false,
      "encoding": "UTF-8",
      "ignore_unknown_values": false,
      "allow_jagged_rows": false,
      "quote_empty_strings": false
    }
  },

  {
    "name": "day",
    "type": "STRING",
    "mode": "NULLABLE",
    "description": null,
    "fields": null,
    "options": {
      "quote": "",
      "skip_leading_rows": 0,
      "write_disposition": "WRITE_EMPTY",
      "field_delimiter": ",",
      "max_bad_records": 0,
      "allow_quoted_newlines": false,
      "encoding": "UTF-8",
      "ignore_unknown_values": false,
      "allow_jagged_rows": false,
      "quote_empty_strings": false
    }
  },

  {
    "name": "date",
    "type": "STRING",
    "mode": "NULLABLE",
    "description": null,
    "fields": null,
    "options": {
      "quote": "",
      "skip_leading_rows": 0,
      "write_disposition": "WRITE_EMPTY",
      "field_delimiter": ",",
      "max_bad_records": 0,
      "allow_quoted_newlines": false,
      "encoding": "UTF-8",
      "ignore_unknown_values": false,
      "allow_jagged_rows": false,
      "quote_empty_strings": false
    }
  },

  {
    "name": "hourly_interval",
    "type": "STRING",
    "mode": "NULLABLE",
    "description": null,
    "fields": null,
    "options": {
      "quote": "",
      "skip_leading_rows": 0,
      "write_disposition": "WRITE_EMPTY",
      "field_delimiter": ",",
      "max_bad_records": 0,
      "allow_quoted_newlines": false,
      "encoding": "UTF-8",
      "ignore_unknown_values": false,
      "allow_jagged_rows": false,
      "quote_empty_strings": false
    }
  },

  {
    "name": "handled",
    "type": "STRING",
    "mode": "NULLABLE",
    "description": null,
    "fields": null,
    "options": {
      "quote": "",
      "skip_leading_rows": 0,
      "write_disposition": "WRITE_EMPTY",
      "field_delimiter": ",",
      "max_bad_records": 0,
      "allow_quoted_newlines": false,
      "encoding": "UTF-8",
      "ignore_unknown_values": false,
      "allow_jagged_rows": false,
      "quote_empty_strings": false
    }
  },

  {
    "name": "abandoned",
    "type": "STRING",
    "mode": "NULLABLE",
    "description": null,
    "fields": null,
    "options": {
      "quote": "",
      "skip_leading_rows": 0,
      "write_disposition": "WRITE_EMPTY",
      "field_delimiter": ",",
      "max_bad_records": 0,
      "allow_quoted_newlines": false,
      "encoding": "UTF-8",
      "ignore_unknown_values": false,
      "allow_jagged_rows": false,
      "quote_empty_strings": false
    }
  },

  {
    "name": "outbound",
    "type": "STRING",
    "mode": "NULLABLE",
    "description": null,
    "fields": null,
    "options": {
      "quote": "",
      "skip_leading_rows": 0,
      "write_disposition": "WRITE_EMPTY",
      "field_delimiter": ",",
      "max_bad_records": 0,
      "allow_quoted_newlines": false,
      "encoding": "UTF-8",
      "ignore_unknown_values": false,
      "allow_jagged_rows": false,
      "quote_empty_strings": false
    }
  },

  {
    "name": "accept_transferred_out",
    "type": "STRING",
    "mode": "NULLABLE",
    "description": null,
    "fields": null,
    "options": {
      "quote": "",
      "skip_leading_rows": 0,
      "write_disposition": "WRITE_EMPTY",
      "field_delimiter": ",",
      "max_bad_records": 0,
      "allow_quoted_newlines": false,
      "encoding": "UTF-8",
      "ignore_unknown_values": false,
      "allow_jagged_rows": false,
      "quote_empty_strings": false
    }
  },

  {
    "name": "handle_time",
    "type": "STRING",
    "mode": "NULLABLE",
    "description": null,
    "fields": null,
    "options": {
      "quote": "",
      "skip_leading_rows": 0,
      "write_disposition": "WRITE_EMPTY",
      "field_delimiter": ",",
      "max_bad_records": 0,
      "allow_quoted_newlines": false,
      "encoding": "UTF-8",
      "ignore_unknown_values": false,
      "allow_jagged_rows": false,
      "quote_empty_strings": false
    }
  },

  {
    "name": "wait_time",
    "type": "STRING",
    "mode": "NULLABLE",
    "description": null,
    "fields": null,
    "options": {
      "quote": "",
      "skip_leading_rows": 0,
      "write_disposition": "WRITE_EMPTY",
      "field_delimiter": ",",
      "max_bad_records": 0,
      "allow_quoted_newlines": false,
      "encoding": "UTF-8",
      "ignore_unknown_values": false,
      "allow_jagged_rows": false,
      "quote_empty_strings": false
    }
  },

  {
    "name": "abandon_time",
    "type": "STRING",
    "mode": "NULLABLE",
    "description": null,
    "fields": null,
    "options": {
      "quote": "",
      "skip_leading_rows": 0,
      "write_disposition": "WRITE_EMPTY",
      "field_delimiter": ",",
      "max_bad_records": 0,
      "allow_quoted_newlines": false,
      "encoding": "UTF-8",
      "ignore_unknown_values": false,
      "allow_jagged_rows": false,
      "quote_empty_strings": false
    }
  },

  {
    "name": "outbound_time",
    "type": "STRING",
    "mode": "NULLABLE",
    "description": null,
    "fields": null,
    "options": {
      "quote": "",
      "skip_leading_rows": 0,
      "write_disposition": "WRITE_EMPTY",
      "field_delimiter": ",",
      "max_bad_records": 0,
      "allow_quoted_newlines": false,
      "encoding": "UTF-8",
      "ignore_unknown_values": false,
      "allow_jagged_rows": false,
      "quote_empty_strings": false
    }
  },

  {
    "name": "time",
    "type": "STRING",
    "mode": "NULLABLE",
    "description": null,
    "fields": null,
    "options": {
      "quote": "",
      "skip_leading_rows": 0,
      "write_disposition": "WRITE_EMPTY",
      "field_delimiter": ",",
      "max_bad_records": 0,
      "allow_quoted_newlines": false,
      "encoding": "UTF-8",
      "ignore_unknown_values": false,
      "allow_jagged_rows": false,
      "quote_empty_strings": false
    }
  },

  {
    "name": "contact_id",
    "type": "STRING",
    "mode": "NULLABLE",
    "description": null,
    "fields": null,
    "options": {
      "quote": "",
      "skip_leading_rows": 0,
      "write_disposition": "WRITE_EMPTY",
      "field_delimiter": ",",
      "max_bad_records": 0,
      "allow_quoted_newlines": false,
      "encoding": "UTF-8",
      "ignore_unknown_values": false,
      "allow_jagged_rows": false,
      "quote_empty_strings": false
    }
  },

  {
    "name": "originator",
    "type": "STRING",
    "mode": "NULLABLE",
    "description": null,
    "fields": null,
    "options": {
      "quote": "",
      "skip_leading_rows": 0,
      "write_disposition": "WRITE_EMPTY",
      "field_delimiter": ",",
      "max_bad_records": 0,
      "allow_quoted_newlines": false,
      "encoding": "UTF-8",
      "ignore_unknown_values": false,
      "allow_jagged_rows": false,
      "quote_empty_strings": false
    }
  },

  {
    "name": "next_address",
    "type": "STRING",
    "mode": "NULLABLE",
    "description": null,
    "fields": null,
    "options": {
      "quote": "",
      "skip_leading_rows": 0,
      "write_disposition": "WRITE_EMPTY",
      "field_delimiter": ",",
      "max_bad_records": 0,
      "allow_quoted_newlines": false,
      "encoding": "UTF-8",
      "ignore_unknown_values": false,
      "allow_jagged_rows": false,
      "quote_empty_strings": false
    }
  },

  {
    "name": "activity_code",
    "type": "STRING",
    "mode": "NULLABLE",
    "description": null,
    "fields": null,
    "options": {
      "quote": "",
      "skip_leading_rows": 0,
      "write_disposition": "WRITE_EMPTY",
      "field_delimiter": ",",
      "max_bad_records": 0,
      "allow_quoted_newlines": false,
      "encoding": "UTF-8",
      "ignore_unknown_values": false,
      "allow_jagged_rows": false,
      "quote_empty_strings": false
    }
  },

  {
    "name": "cfr_username",
    "type": "STRING",
    "mode": "NULLABLE",
    "description": null,
    "fields": null,
    "options": {
      "quote": "",
      "skip_leading_rows": 0,
      "write_disposition": "WRITE_EMPTY",
      "field_delimiter": ",",
      "max_bad_records": 0,
      "allow_quoted_newlines": false,
      "encoding": "UTF-8",
      "ignore_unknown_values": false,
      "allow_jagged_rows": false,
      "quote_empty_strings": false
    }
  },

  {
    "name": "cfr_customer_verified",
    "type": "STRING",
    "mode": "NULLABLE",
    "description": null,
    "fields": null,
    "options": {
      "quote": "",
      "skip_leading_rows": 0,
      "write_disposition": "WRITE_EMPTY",
      "field_delimiter": ",",
      "max_bad_records": 0,
      "allow_quoted_newlines": false,
      "encoding": "UTF-8",
      "ignore_unknown_values": false,
      "allow_jagged_rows": false,
      "quote_empty_strings": false
    }
  },

  {
    "name": "cfr_product",
    "type": "STRING",
    "mode": "NULLABLE",
    "description": null,
    "fields": null,
    "options": {
      "quote": "",
      "skip_leading_rows": 0,
      "write_disposition": "WRITE_EMPTY",
      "field_delimiter": ",",
      "max_bad_records": 0,
      "allow_quoted_newlines": false,
      "encoding": "UTF-8",
      "ignore_unknown_values": false,
      "allow_jagged_rows": false,
      "quote_empty_strings": false
    }
  },

  {
    "name": "cfr_inquiry",
    "type": "STRING",
    "mode": "NULLABLE",
    "description": null,
    "fields": null,
    "options": {
      "quote": "",
      "skip_leading_rows": 0,
      "write_disposition": "WRITE_EMPTY",
      "field_delimiter": ",",
      "max_bad_records": 0,
      "allow_quoted_newlines": false,
      "encoding": "UTF-8",
      "ignore_unknown_values": false,
      "allow_jagged_rows": false,
      "quote_empty_strings": false
    }
  },

  {
    "name": "cfr_sub_inquiry",
    "type": "STRING",
    "mode": "NULLABLE",
    "description": null,
    "fields": null,
    "options": {
      "quote": "",
      "skip_leading_rows": 0,
      "write_disposition": "WRITE_EMPTY",
      "field_delimiter": ",",
      "max_bad_records": 0,
      "allow_quoted_newlines": false,
      "encoding": "UTF-8",
      "ignore_unknown_values": false,
      "allow_jagged_rows": false,
      "quote_empty_strings": false
    }
  },

  {
    "name": "cfr_ip",
    "type": "STRING",
    "mode": "NULLABLE",
    "description": null,
    "fields": null,
    "options": {
      "quote": "",
      "skip_leading_rows": 0,
      "write_disposition": "WRITE_EMPTY",
      "field_delimiter": ",",
      "max_bad_records": 0,
      "allow_quoted_newlines": false,
      "encoding": "UTF-8",
      "ignore_unknown_values": false,
      "allow_jagged_rows": false,
      "quote_empty_strings": false
    }
  },

  {
    "name": "cfr_country",
    "type": "STRING",
    "mode": "NULLABLE",
    "description": null,
    "fields": null,
    "options": {
      "quote": "",
      "skip_leading_rows": 0,
      "write_disposition": "WRITE_EMPTY",
      "field_delimiter": ",",
      "max_bad_records": 0,
      "allow_quoted_newlines": false,
      "encoding": "UTF-8",
      "ignore_unknown_values": false,
      "allow_jagged_rows": false,
      "quote_empty_strings": false
    }
  },

  {
    "name": "cfr_source",
    "type": "STRING",
    "mode": "NULLABLE",
    "description": null,
    "fields": null,
    "options": {
      "quote": "",
      "skip_leading_rows": 0,
      "write_disposition": "WRITE_EMPTY",
      "field_delimiter": ",",
      "max_bad_records": 0,
      "allow_quoted_newlines": false,
      "encoding": "UTF-8",
      "ignore_unknown_values": false,
      "allow_jagged_rows": false,
      "quote_empty_strings": false
    }
  },

  {
    "name": "cfr_referrer",
    "type": "STRING",
    "mode": "NULLABLE",
    "description": null,
    "fields": null,
    "options": {
      "quote": "",
      "skip_leading_rows": 0,
      "write_disposition": "WRITE_EMPTY",
      "field_delimiter": ",",
      "max_bad_records": 0,
      "allow_quoted_newlines": false,
      "encoding": "UTF-8",
      "ignore_unknown_values": false,
      "allow_jagged_rows": false,
      "quote_empty_strings": false
    }
  },

  {
    "name": "cfr_restart",
    "type": "STRING",
    "mode": "NULLABLE",
    "description": null,
    "fields": null,
    "options": {
      "quote": "",
      "skip_leading_rows": 0,
      "write_disposition": "WRITE_EMPTY",
      "field_delimiter": ",",
      "max_bad_records": 0,
      "allow_quoted_newlines": false,
      "encoding": "UTF-8",
      "ignore_unknown_values": false,
      "allow_jagged_rows": false,
      "quote_empty_strings": false
    }
  },

  {
    "name": "cfr_bet_slip_callback_id",
    "type": "STRING",
    "mode": "NULLABLE",
    "description": null,
    "fields": null,
    "options": {
      "quote": "",
      "skip_leading_rows": 0,
      "write_disposition": "WRITE_EMPTY",
      "field_delimiter": ",",
      "max_bad_records": 0,
      "allow_quoted_newlines": false,
      "encoding": "UTF-8",
      "ignore_unknown_values": false,
      "allow_jagged_rows": false,
      "quote_empty_strings": false
    }
  },

  {
    "name": "cfr_custom_data",
    "type": "STRING",
    "mode": "NULLABLE",
    "description": null,
    "fields": null,
    "options": {
      "quote": "",
      "skip_leading_rows": 0,
      "write_disposition": "WRITE_EMPTY",
      "field_delimiter": ",",
      "max_bad_records": 0,
      "allow_quoted_newlines": false,
      "encoding": "UTF-8",
      "ignore_unknown_values": false,
      "allow_jagged_rows": false,
      "quote_empty_strings": false
    }
  },

  {
    "name": "brand",
    "type": "STRING",
    "mode": "NULLABLE",
    "description": null,
    "fields": null,
    "options": {
      "quote": "",
      "skip_leading_rows": 0,
      "write_disposition": "WRITE_EMPTY",
      "field_delimiter": ",",
      "max_bad_records": 0,
      "allow_quoted_newlines": false,
      "encoding": "UTF-8",
      "ignore_unknown_values": false,
      "allow_jagged_rows": false,
      "quote_empty_strings": false
    }
  },

  {
    "name": "product",
    "type": "STRING",
    "mode": "NULLABLE",
    "description": null,
    "fields": null,
    "options": {
      "quote": "",
      "skip_leading_rows": 0,
      "write_disposition": "WRITE_EMPTY",
      "field_delimiter": ",",
      "max_bad_records": 0,
      "allow_quoted_newlines": false,
      "encoding": "UTF-8",
      "ignore_unknown_values": false,
      "allow_jagged_rows": false,
      "quote_empty_strings": false
    }
  },

  {
    "name": "query_type",
    "type": "STRING",
    "mode": "NULLABLE",
    "description": null,
    "fields": null,
    "options": {
      "quote": "",
      "skip_leading_rows": 0,
      "write_disposition": "WRITE_EMPTY",
      "field_delimiter": ",",
      "max_bad_records": 0,
      "allow_quoted_newlines": false,
      "encoding": "UTF-8",
      "ignore_unknown_values": false,
      "allow_jagged_rows": false,
      "quote_empty_strings": false
    }
  },

  {
    "name": "handled_excl_email",
    "type": "STRING",
    "mode": "NULLABLE",
    "description": null,
    "fields": null,
    "options": {
      "quote": "",
      "skip_leading_rows": 0,
      "write_disposition": "WRITE_EMPTY",
      "field_delimiter": ",",
      "max_bad_records": 0,
      "allow_quoted_newlines": false,
      "encoding": "UTF-8",
      "ignore_unknown_values": false,
      "allow_jagged_rows": false,
      "quote_empty_strings": false
    }
  },

  {
    "name": "interval_thirty",
    "type": "STRING",
    "mode": "NULLABLE",
    "description": null,
    "fields": null,
    "options": {
      "quote": "",
      "skip_leading_rows": 0,
      "write_disposition": "WRITE_EMPTY",
      "field_delimiter": ",",
      "max_bad_records": 0,
      "allow_quoted_newlines": false,
      "encoding": "UTF-8",
      "ignore_unknown_values": false,
      "allow_jagged_rows": false,
      "quote_empty_strings": false
    }
  },

  {
    "name": "topic_name",
    "type": "STRING",
    "mode": "NULLABLE",
    "description": null,
    "fields": null,
    "options": {
      "quote": "",
      "skip_leading_rows": 0,
      "write_disposition": "WRITE_EMPTY",
      "field_delimiter": ",",
      "max_bad_records": 0,
      "allow_quoted_newlines": false,
      "encoding": "UTF-8",
      "ignore_unknown_values": false,
      "allow_jagged_rows": false,
      "quote_empty_strings": false
    }
  },

  {
    "name": "key_word1",
    "type": "STRING",
    "mode": "NULLABLE",
    "description": null,
    "fields": null,
    "options": {
      "quote": "",
      "skip_leading_rows": 0,
      "write_disposition": "WRITE_EMPTY",
      "field_delimiter": ",",
      "max_bad_records": 0,
      "allow_quoted_newlines": false,
      "encoding": "UTF-8",
      "ignore_unknown_values": false,
      "allow_jagged_rows": false,
      "quote_empty_strings": false
    }
  },

  {
    "name": "key_word2",
    "type": "STRING",
    "mode": "NULLABLE",
    "description": null,
    "fields": null,
    "options": {
      "quote": "",
      "skip_leading_rows": 0,
      "write_disposition": "WRITE_EMPTY",
      "field_delimiter": ",",
      "max_bad_records": 0,
      "allow_quoted_newlines": false,
      "encoding": "UTF-8",
      "ignore_unknown_values": false,
      "allow_jagged_rows": false,
      "quote_empty_strings": false
    }
  },

  {
    "name": "key_word3",
    "type": "STRING",
    "mode": "NULLABLE",
    "description": null,
    "fields": null,
    "options": {
      "quote": "",
      "skip_leading_rows": 0,
      "write_disposition": "WRITE_EMPTY",
      "field_delimiter": ",",
      "max_bad_records": 0,
      "allow_quoted_newlines": false,
      "encoding": "UTF-8",
      "ignore_unknown_values": false,
      "allow_jagged_rows": false,
      "quote_empty_strings": false
    }
  },

  {
    "name": "sata_usage",
    "type": "STRING",
    "mode": "NULLABLE",
    "description": null,
    "fields": null,
    "options": {
      "quote": "",
      "skip_leading_rows": 0,
      "write_disposition": "WRITE_EMPTY",
      "field_delimiter": ",",
      "max_bad_records": 0,
      "allow_quoted_newlines": false,
      "encoding": "UTF-8",
      "ignore_unknown_values": false,
      "allow_jagged_rows": false,
      "quote_empty_strings": false
    }
  },

  {
    "name": "daily_staffed_time",
    "type": "STRING",
    "mode": "NULLABLE",
    "description": null,
    "fields": null,
    "options": {
      "quote": "",
      "skip_leading_rows": 0,
      "write_disposition": "WRITE_EMPTY",
      "field_delimiter": ",",
      "max_bad_records": 0,
      "allow_quoted_newlines": false,
      "encoding": "UTF-8",
      "ignore_unknown_values": false,
      "allow_jagged_rows": false,
      "quote_empty_strings": false
    }
  },

  {
    "name": "hourly_staffed_time",
    "type": "STRING",
    "mode": "NULLABLE",
    "description": null,
    "fields": null,
    "options": {
      "quote": "",
      "skip_leading_rows": 0,
      "write_disposition": "WRITE_EMPTY",
      "field_delimiter": ",",
      "max_bad_records": 0,
      "allow_quoted_newlines": false,
      "encoding": "UTF-8",
      "ignore_unknown_values": false,
      "allow_jagged_rows": false,
      "quote_empty_strings": false
    }
  },

  {
    "name": "sla_ans",
    "type": "STRING",
    "mode": "NULLABLE",
    "description": null,
    "fields": null,
    "options": {
      "quote": "",
      "skip_leading_rows": 0,
      "write_disposition": "WRITE_EMPTY",
      "field_delimiter": ",",
      "max_bad_records": 0,
      "allow_quoted_newlines": false,
      "encoding": "UTF-8",
      "ignore_unknown_values": false,
      "allow_jagged_rows": false,
      "quote_empty_strings": false
    }
  },

  {
    "name": "sla_abn",
    "type": "STRING",
    "mode": "NULLABLE",
    "description": null,
    "fields": null,
    "options": {
      "quote": "",
      "skip_leading_rows": 0,
      "write_disposition": "WRITE_EMPTY",
      "field_delimiter": ",",
      "max_bad_records": 0,
      "allow_quoted_newlines": false,
      "encoding": "UTF-8",
      "ignore_unknown_values": false,
      "allow_jagged_rows": false,
      "quote_empty_strings": false
    }
  },

  {
    "name": "en_row_filter",
    "type": "STRING",
    "mode": "NULLABLE",
    "description": null,
    "fields": null,
    "options": {
      "quote": "",
      "skip_leading_rows": 0,
      "write_disposition": "WRITE_EMPTY",
      "field_delimiter": ",",
      "max_bad_records": 0,
      "allow_quoted_newlines": false,
      "encoding": "UTF-8",
      "ignore_unknown_values": false,
      "allow_jagged_rows": false,
      "quote_empty_strings": false
    }
  },

  {
    "name": "blank1",
    "type": "STRING",
    "mode": "NULLABLE",
    "description": null,
    "fields": null,
    "options": {
      "quote": "",
      "skip_leading_rows": 0,
      "write_disposition": "WRITE_EMPTY",
      "field_delimiter": ",",
      "max_bad_records": 0,
      "allow_quoted_newlines": false,
      "encoding": "UTF-8",
      "ignore_unknown_values": false,
      "allow_jagged_rows": false,
      "quote_empty_strings": false
    }
  },

  {
    "name": "social_app",
    "type": "STRING",
    "mode": "NULLABLE",
    "description": null,
    "fields": null,
    "options": {
      "quote": "",
      "skip_leading_rows": 0,
      "write_disposition": "WRITE_EMPTY",
      "field_delimiter": ",",
      "max_bad_records": 0,
      "allow_quoted_newlines": false,
      "encoding": "UTF-8",
      "ignore_unknown_values": false,
      "allow_jagged_rows": false,
      "quote_empty_strings": false
    }
  },

  {
    "name": "queue_tier",
    "type": "STRING",
    "mode": "NULLABLE",
    "description": null,
    "fields": null,
    "options": {
      "quote": "",
      "skip_leading_rows": 0,
      "write_disposition": "WRITE_EMPTY",
      "field_delimiter": ",",
      "max_bad_records": 0,
      "allow_quoted_newlines": false,
      "encoding": "UTF-8",
      "ignore_unknown_values": false,
      "allow_jagged_rows": false,
      "quote_empty_strings": false
    }
  },

  {
    "name": "interval_five",
    "type": "STRING",
    "mode": "NULLABLE",
    "description": null,
    "fields": null,
    "options": {
      "quote": "",
      "skip_leading_rows": 0,
      "write_disposition": "WRITE_EMPTY",
      "field_delimiter": ",",
      "max_bad_records": 0,
      "allow_quoted_newlines": false,
      "encoding": "UTF-8",
      "ignore_unknown_values": false,
      "allow_jagged_rows": false,
      "quote_empty_strings": false
    }
  },

  {
    "name": "country_look_up",
    "type": "STRING",
    "mode": "NULLABLE",
    "description": null,
    "fields": null,
    "options": {
      "quote": "",
      "skip_leading_rows": 0,
      "write_disposition": "WRITE_EMPTY",
      "field_delimiter": ",",
      "max_bad_records": 0,
      "allow_quoted_newlines": false,
      "encoding": "UTF-8",
      "ignore_unknown_values": false,
      "allow_jagged_rows": false,
      "quote_empty_strings": false
    }
  },

  {
    "name": "route_point",
    "type": "STRING",
    "mode": "NULLABLE",
    "description": null,
    "fields": null,
    "options": {
      "quote": "",
      "skip_leading_rows": 0,
      "write_disposition": "WRITE_EMPTY",
      "field_delimiter": ",",
      "max_bad_records": 0,
      "allow_quoted_newlines": false,
      "encoding": "UTF-8",
      "ignore_unknown_values": false,
      "allow_jagged_rows": false,
      "quote_empty_strings": false
    }
  },

  {
    "name": "application_name",
    "type": "STRING",
    "mode": "NULLABLE",
    "description": null,
    "fields": null,
    "options": {
      "quote": "",
      "skip_leading_rows": 0,
      "write_disposition": "WRITE_EMPTY",
      "field_delimiter": ",",
      "max_bad_records": 0,
      "allow_quoted_newlines": false,
      "encoding": "UTF-8",
      "ignore_unknown_values": false,
      "allow_jagged_rows": false,
      "quote_empty_strings": false
    }
  }
]
